^D:\UBB_SEM2\OOP\LAB\STOREABC\STOREABC\X64\DEBUG\DOMAIN.OBJ|D:\UBB_SEM2\OOP\LAB\STOREABC\STOREABC\X64\DEBUG\GUI.OBJ|D:\UBB_SEM2\OOP\LAB\STOREABC\STOREABC\X64\DEBUG\MAIN.OBJ|D:\UBB_SEM2\OOP\LAB\STOREABC\STOREABC\X64\DEBUG\QRC_STOREABC.OBJ|D:\UBB_SEM2\OOP\LAB\STOREABC\STOREABC\X64\DEBUG\REPO.OBJ|D:\UBB_SEM2\OOP\LAB\STOREABC\STOREABC\X64\DEBUG\SERVICE.OBJ
C:\QT\QT5.14.2\5.14.2\MSVC2017_64\LIB\QT5WIDGETSD.LIB
C:\QT\QT5.14.2\5.14.2\MSVC2017_64\LIB\QT5GUID.LIB
C:\QT\QT5.14.2\5.14.2\MSVC2017_64\LIB\QT5CORED.LIB
C:\QT\QT5.14.2\5.14.2\MSVC2017_64\LIB\QTMAIND.LIB
C:\PROGRAM FILES (X86)\WINDOWS KITS\10\LIB\10.0.18362.0\UM\X64\SHELL32.LIB
C:\PROGRAM FILES (X86)\WINDOWS KITS\10\LIB\10.0.18362.0\UM\X64\KERNEL32.LIB
C:\PROGRAM FILES (X86)\WINDOWS KITS\10\LIB\10.0.18362.0\UM\X64\USER32.LIB
C:\PROGRAM FILES (X86)\WINDOWS KITS\10\LIB\10.0.18362.0\UM\X64\GDI32.LIB
C:\PROGRAM FILES (X86)\WINDOWS KITS\10\LIB\10.0.18362.0\UM\X64\WINSPOOL.LIB
C:\PROGRAM FILES (X86)\WINDOWS KITS\10\LIB\10.0.18362.0\UM\X64\COMDLG32.LIB
C:\PROGRAM FILES (X86)\WINDOWS KITS\10\LIB\10.0.18362.0\UM\X64\ADVAPI32.LIB
C:\PROGRAM FILES (X86)\WINDOWS KITS\10\LIB\10.0.18362.0\UM\X64\OLE32.LIB
C:\PROGRAM FILES (X86)\WINDOWS KITS\10\LIB\10.0.18362.0\UM\X64\OLEAUT32.LIB
C:\PROGRAM FILES (X86)\WINDOWS KITS\10\LIB\10.0.18362.0\UM\X64\UUID.LIB
C:\PROGRAM FILES (X86)\WINDOWS KITS\10\LIB\10.0.18362.0\UM\X64\ODBC32.LIB
C:\PROGRAM FILES (X86)\WINDOWS KITS\10\LIB\10.0.18362.0\UM\X64\ODBCCP32.LIB
D:\UBB_SEM2\OOP\LAB\STOREABC\STOREABC\X64\DEBUG\DOMAIN.OBJ
D:\UBB_SEM2\OOP\LAB\STOREABC\STOREABC\X64\DEBUG\GUI.OBJ
D:\UBB_SEM2\OOP\LAB\STOREABC\STOREABC\X64\DEBUG\MAIN.OBJ
D:\UBB_SEM2\OOP\LAB\STOREABC\STOREABC\X64\DEBUG\REPO.OBJ
D:\UBB_SEM2\OOP\LAB\STOREABC\STOREABC\X64\DEBUG\SERVICE.OBJ
D:\UBB_SEM2\OOP\LAB\STOREABC\STOREABC\X64\DEBUG\QRC_STOREABC.OBJ
C:\WINDOWS\SYSTEM32\TZRES.DLL
C:\WINDOWS\GLOBALIZATION\SORTING\SORTDEFAULT.NLS
C:\PROGRAM FILES (X86)\MICROSOFT VISUAL STUDIO\2019\COMMUNITY\VC\TOOLS\MSVC\14.25.28610\LIB\X64\MSVCPRTD.LIB
C:\PROGRAM FILES (X86)\MICROSOFT VISUAL STUDIO\2019\COMMUNITY\VC\TOOLS\MSVC\14.25.28610\LIB\X64\MSVCRTD.LIB
C:\PROGRAM FILES (X86)\MICROSOFT VISUAL STUDIO\2019\COMMUNITY\VC\TOOLS\MSVC\14.25.28610\LIB\X64\OLDNAMES.LIB
C:\PROGRAM FILES (X86)\MICROSOFT VISUAL STUDIO\2019\COMMUNITY\VC\TOOLS\MSVC\14.25.28610\LIB\X64\VCRUNTIMED.LIB
C:\PROGRAM FILES (X86)\WINDOWS KITS\10\LIB\10.0.18362.0\UCRT\X64\UCRTD.LIB
