^D:\UBB_SEM2\OOP\LAB\STOREABC\STOREABC\X64\DEBUG\DOMAIN.OBJ|D:\UBB_SEM2\OOP\LAB\STOREABC\STOREABC\X64\DEBUG\GUI.OBJ|D:\UBB_SEM2\OOP\LAB\STOREABC\STOREABC\X64\DEBUG\MAIN.OBJ|D:\UBB_SEM2\OOP\LAB\STOREABC\STOREABC\X64\DEBUG\QRC_STOREABC.OBJ|D:\UBB_SEM2\OOP\LAB\STOREABC\STOREABC\X64\DEBUG\REPO.OBJ|D:\UBB_SEM2\OOP\LAB\STOREABC\STOREABC\X64\DEBUG\SERVICE.OBJ
/OUT:"D:\UBB_SEM2\OOP\LAB\STOREABC\X64\DEBUG\\STOREABC.EXE" /NOLOGO /LIBPATH:C:\OPENSSL\LIB /LIBPATH:"C:\UTILS\MY_SQL\MYSQL-5.7.25-WINX64\LIB" /LIBPATH:C:\UTILS\POSTGRESQL\PGSQL\LIB C:\QT\QT5.14.2\5.14.2\MSVC2017_64\LIB\QT5WIDGETSD.LIB C:\QT\QT5.14.2\5.14.2\MSVC2017_64\LIB\QT5GUID.LIB C:\QT\QT5.14.2\5.14.2\MSVC2017_64\LIB\QT5CORED.LIB C:\QT\QT5.14.2\5.14.2\MSVC2017_64\LIB\QTMAIND.LIB SHELL32.LIB KERNEL32.LIB USER32.LIB GDI32.LIB WINSPOOL.LIB COMDLG32.LIB ADVAPI32.LIB SHELL32.LIB OLE32.LIB OLEAUT32.LIB UUID.LIB ODBC32.LIB ODBCCP32.LIB /MANIFEST /MANIFESTUAC:"level='asInvoker' uiAccess='false'" /manifest:embed /DEBUG /PDB:"D:\UBB_SEM2\OOP\LAB\STOREABC\X64\DEBUG\STOREABC.PDB" /SUBSYSTEM:WINDOWS /TLBID:1 /DYNAMICBASE /NXCOMPAT /IMPLIB:"D:\UBB_SEM2\OOP\LAB\STOREABC\X64\DEBUG\STOREABC.LIB" /MACHINE:X64 X64\DEBUG\DOMAIN.OBJ
X64\DEBUG\GUI.OBJ
X64\DEBUG\MAIN.OBJ
X64\DEBUG\REPO.OBJ
X64\DEBUG\SERVICE.OBJ
X64\DEBUG\QRC_STOREABC.OBJ
